\relax 
\providecommand\hyper@newdestlabel[2]{}
\providecommand\HyperFirstAtBeginDocument{\AtBeginDocument}
\HyperFirstAtBeginDocument{\ifx\hyper@anchor\@undefined
\global\let\oldcontentsline\contentsline
\gdef\contentsline#1#2#3#4{\oldcontentsline{#1}{#2}{#3}}
\global\let\oldnewlabel\newlabel
\gdef\newlabel#1#2{\newlabelxx{#1}#2}
\gdef\newlabelxx#1#2#3#4#5#6{\oldnewlabel{#1}{{#2}{#3}}}
\AtEndDocument{\ifx\hyper@anchor\@undefined
\let\contentsline\oldcontentsline
\let\newlabel\oldnewlabel
\fi}
\fi}
\global\let\hyper@last\relax 
\gdef\HyperFirstAtBeginDocument#1{#1}
\providecommand*\HyPL@Entry[1]{}
\HyPL@Entry{0<</S/D>>}
\@writefile{toc}{\contentsline {section}{\numberline {1}Introduction}{1}{section.1}}
\@writefile{toc}{\contentsline {section}{\numberline {2}Creating a Basic Simulation}{1}{section.2}}
\newlabel{sectBasic}{{2}{1}{Creating a Basic Simulation}{section.2}{}}
\newlabel{stepBuiltModel}{{2}{2}{Creating a Basic Simulation}{Item.2}{}}
\newlabel{stepAllocate}{{10}{3}{Creating a Basic Simulation}{Item.10}{}}
\@writefile{lot}{\contentsline {table}{\numberline {1}{\ignorespaces Parameters for Each House}}{3}{table.1}}
\newlabel{tabSim}{{1}{3}{Parameters for Each House}{table.1}{}}
\newlabel{figModel}{{2}{4}{Creating a Basic Simulation}{Item.14}{}}
\@writefile{lof}{\contentsline {figure}{\numberline {1}{\ignorespaces A Suggested Section and Numbering}}{4}{figure.1}}
\newlabel{figManagmentView}{{2}{5}{Creating a Basic Simulation}{figure.1}{}}
\@writefile{lof}{\contentsline {figure}{\numberline {2}{\ignorespaces The Management View with Some Wemoses Connected}}{5}{figure.2}}
\newlabel{figSimulationView}{{2}{5}{Creating a Basic Simulation}{figure.2}{}}
\@writefile{lof}{\contentsline {figure}{\numberline {3}{\ignorespaces The Simulation View}}{5}{figure.3}}
\@writefile{toc}{\contentsline {section}{\numberline {3}Changing Settings}{6}{section.3}}
\newlabel{sectCosmetic}{{3}{6}{Changing Settings}{section.3}{}}
\@writefile{toc}{\contentsline {section}{\numberline {4}Platform Structure}{6}{section.4}}
\newlabel{sectModel}{{4}{6}{Platform Structure}{section.4}{}}
\@writefile{toc}{\contentsline {subsection}{\numberline {4.1}Wemoses}{6}{subsection.4.1}}
\@writefile{toc}{\contentsline {subsection}{\numberline {4.2}Interface}{6}{subsection.4.2}}
\@writefile{lot}{\contentsline {table}{\numberline {2}{\ignorespaces Commands and Their Uses}}{7}{table.2}}
\newlabel{tabCommand}{{2}{7}{Commands and Their Uses}{table.2}{}}
